<svg width="720" height="400" viewBox="0 0 720 400" fill="none" xmlns="http://www.w3.org/2000/svg">
<path d="M720 0H0V351.689C0 351.689 74 463.173 289 340.196C504 217.22 720 351.689 720 351.689V0Z" fill="#897ABC" fill-opacity="0.5"/>
<path d="M0 0H720V306C720 306 646 403 431 296C216 189 0 306 0 306V0Z" fill="currentColor"/>
</svg>
